Ideal,1,2,3,4,5,6,7,8,9,10,11,12,13,14,15,16,17,18,19,20,21,22,23,24,25,26,27,28,29,30,31,32
error-compared-to-final,0,0,0,0,0,0,0,0,0,0,0,0,0,0,0,0,0,0,0,0,0,0,0,0,0,0,0,0,0,0,0,0
,,,,,,,,,,,,,,,,,,,,,,,,,,,,,,,,
,,,,,,,,,,,,,,,,,,,,,,,,,,,,,,,,
,,,,,,,,,,,,,,,,,,,,,,,,,,,,,,,,
1,1,2,3,4,5,6,7,8,9,10,11,12,13,14,15,16,17,18,19,20,21,22,23,24,25,26,27,28,29,30,31,32
avg-state-error,0.294922,0.326660,0.326660,0.326660,0.326660,0.326660,0.326660,0.326660,0.326660,0.326660,0.326660,0.326660,0.326660,0.326660,0.326660,0.326660,0.326660,0.326660,0.326660,0.326660,0.326660,0.326660,0.326660,0.326660,0.326660,0.326660,0.326660,0.326660,0.326660,0.326660,0.326660,0.326660
output-error,130,130,130,130,130,130,130,130,130,130,130,130,130,130,130,130,130,130,130,130,130,130,130,130,130,130,130,130,130,130,130,130
error-compared-to-final,130,130,130,130,130,130,130,130,130,130,130,130,130,130,130,130,130,130,130,130,130,130,130,130,130,130,130,130,130,130,130,130
,,,,,,,,,,,,,,,,,,,,,,,,,,,,,,,,
2,2,4,6,8,10,12,14,16,18,20,22,24,26,28,30,32,,,,,,,,,,,,,,,,
avg-state-error,0.326660,0.326660,0.326660,0.326660,0.326660,0.326660,0.326660,0.326660,0.326660,0.326660,0.326660,0.326660,0.326660,0.326660,0.326660,0.326660,,,,,,,,,,,,,,,,
output-error,130,130,130,130,130,130,130,130,130,130,130,130,130,130,130,130,,,,,,,,,,,,,,,,
error-compared-to-final,130,130,130,130,130,130,130,130,130,130,130,130,130,130,130,130,,,,,,,,,,,,,,,,
,,,,,,,,,,,,,,,,,,,,,,,,,,,,,,,,
4,4,8,12,16,20,24,28,32,,,,,,,,,,,,,,,,,,,,,,,,
avg-state-error,0.326660,0.326660,0.326660,0.326660,0.326660,0.326660,0.326660,0.326660,,,,,,,,,,,,,,,,,,,,,,,,
output-error,130,130,130,130,130,130,130,130,,,,,,,,,,,,,,,,,,,,,,,,
error-compared-to-final,130,130,130,130,130,130,130,130,,,,,,,,,,,,,,,,,,,,,,,,
,,,,,,,,,,,,,,,,,,,,,,,,,,,,,,,,
8,8,16,24,32,,,,,,,,,,,,,,,,,,,,,,,,,,,,
avg-state-error,0.326660,0.326660,0.326660,0.326660,,,,,,,,,,,,,,,,,,,,,,,,,,,,
output-error,130,130,130,130,,,,,,,,,,,,,,,,,,,,,,,,,,,,
error-compared-to-final,130,130,130,130,,,,,,,,,,,,,,,,,,,,,,,,,,,,
,,,,,,,,,,,,,,,,,,,,,,,,,,,,,,,,
16,16,32,,,,,,,,,,,,,,,,,,,,,,,,,,,,,,
avg-state-error,0.326660,0.326660,,,,,,,,,,,,,,,,,,,,,,,,,,,,,,
output-error,130,130,,,,,,,,,,,,,,,,,,,,,,,,,,,,,,
error-compared-to-final,130,130,,,,,,,,,,,,,,,,,,,,,,,,,,,,,,
,,,,,,,,,,,,,,,,,,,,,,,,,,,,,,,,
32,32,,,,,,,,,,,,,,,,,,,,,,,,,,,,,,,
avg-state-error,0.326660,,,,,,,,,,,,,,,,,,,,,,,,,,,,,,,
output-error,130,,,,,,,,,,,,,,,,,,,,,,,,,,,,,,,
error-compared-to-final,130,,,,,,,,,,,,,,,,,,,,,,,,,,,,,,,
,,,,,,,,,,,,,,,,,,,,,,,,,,,,,,,,